<svg width="37" height="37" viewBox="0 0 37 37" fill="none" xmlns="http://www.w3.org/2000/svg">
<path d="M12.3333 12.3334L12.3333 10.7917C12.3333 7.38596 15.0942 4.62504 18.4999 4.62504V4.62504C21.9057 4.62504 24.6666 7.38596 24.6666 10.7917L24.6666 12.3334" stroke="#4F4F4F" stroke-width="2" stroke-linecap="round"/>
<path d="M23.125 21.5833V18.5" stroke="#4F4F4F" stroke-width="2" stroke-linecap="round"/>
<path d="M13.875 21.5833V18.5" stroke="#4F4F4F" stroke-width="2" stroke-linecap="round"/>
<path d="M6.16675 16.3334C6.16675 14.4478 6.16675 13.5049 6.75253 12.9192C7.33832 12.3334 8.28113 12.3334 10.1667 12.3334H26.8334C28.719 12.3334 29.6618 12.3334 30.2476 12.9192C30.8334 13.5049 30.8334 14.4478 30.8334 16.3334V24.375C30.8334 28.1463 30.8334 30.0319 29.6618 31.2035C28.4903 32.375 26.6047 32.375 22.8334 32.375H14.1667C10.3955 32.375 8.50989 32.375 7.33832 31.2035C6.16675 30.0319 6.16675 28.1463 6.16675 24.375V16.3334Z" stroke="#4F4F4F" stroke-width="2"/>
</svg>
