<svg width="26" height="20" viewBox="0 0 26 20" fill="none" xmlns="http://www.w3.org/2000/svg">
<path d="M1 1.42856H25" stroke="#444444" stroke-linecap="round"/>
<path d="M1 10H25" stroke="#444444" stroke-linecap="round"/>
<path d="M1 18.5714H13" stroke="#444444" stroke-linecap="round"/>
</svg>
